%YAML 1.1
%TAG !u! tag:unity3d.com,2011:
--- !u!29 &1
OcclusionCullingSettings:
  m_ObjectHideFlags: 0
  serializedVersion: 2
  m_OcclusionBakeSettings:
    smallestOccluder: 5
    smallestHole: 0.25
    backfaceThreshold: 100
  m_SceneGUID: 00000000000000000000000000000000
  m_OcclusionCullingData: {fileID: 0}
--- !u!104 &2
RenderSettings:
  m_ObjectHideFlags: 0
  serializedVersion: 9
  m_Fog: 0
  m_FogColor: {r: 0.5, g: 0.5, b: 0.5, a: 1}
  m_FogMode: 3
  m_FogDensity: 0.01
  m_LinearFogStart: 0
  m_LinearFogEnd: 300
  m_AmbientSkyColor: {r: 0, g: 0, b: 0, a: 1}
  m_AmbientEquatorColor: {r: 0.114, g: 0.125, b: 0.133, a: 1}
  m_AmbientGroundColor: {r: 0.047, g: 0.043, b: 0.035, a: 1}
  m_AmbientIntensity: 1
  m_AmbientMode: 0
  m_SubtractiveShadowColor: {r: 0, g: 0, b: 0, a: 1}
  m_SkyboxMaterial: {fileID: 0}
  m_HaloStrength: 0.5
  m_FlareStrength: 1
  m_FlareFadeSpeed: 3
  m_HaloTexture: {fileID: 0}
  m_SpotCookie: {fileID: 10001, guid: 0000000000000000e000000000000000, type: 0}
  m_DefaultReflectionMode: 0
  m_DefaultReflectionResolution: 128
  m_ReflectionBounces: 1
  m_ReflectionIntensity: 1
  m_CustomReflection: {fileID: 0}
  m_Sun: {fileID: 0}
  m_IndirectSpecularColor: {r: 0, g: 0, b: 0, a: 1}
  m_UseRadianceAmbientProbe: 0
--- !u!157 &3
LightmapSettings:
  m_ObjectHideFlags: 0
  serializedVersion: 12
  m_GIWorkflowMode: 1
  m_GISettings:
    serializedVersion: 2
    m_BounceScale: 1
    m_IndirectOutputScale: 1
    m_AlbedoBoost: 1
    m_EnvironmentLightingMode: 0
    m_EnableBakedLightmaps: 1
    m_EnableRealtimeLightmaps: 0
  m_LightmapEditorSettings:
    serializedVersion: 12
    m_Resolution: 2
    m_BakeResolution: 40
    m_AtlasSize: 1024
    m_AO: 0
    m_AOMaxDistance: 1
    m_CompAOExponent: 1
    m_CompAOExponentDirect: 0
    m_ExtractAmbientOcclusion: 0
    m_Padding: 2
    m_LightmapParameters: {fileID: 0}
    m_LightmapsBakeMode: 1
    m_TextureCompression: 1
    m_FinalGather: 0
    m_FinalGatherFiltering: 1
    m_FinalGatherRayCount: 256
    m_ReflectionCompression: 2
    m_MixedBakeMode: 2
    m_BakeBackend: 1
    m_PVRSampling: 1
    m_PVRDirectSampleCount: 32
    m_PVRSampleCount: 512
    m_PVRBounces: 2
    m_PVREnvironmentSampleCount: 256
    m_PVREnvironmentReferencePointCount: 2048
    m_PVRFilteringMode: 1
    m_PVRDenoiserTypeDirect: 1
    m_PVRDenoiserTypeIndirect: 1
    m_PVRDenoiserTypeAO: 1
    m_PVRFilterTypeDirect: 0
    m_PVRFilterTypeIndirect: 0
    m_PVRFilterTypeAO: 0
    m_PVREnvironmentMIS: 1
    m_PVRCulling: 1
    m_PVRFilteringGaussRadiusDirect: 1
    m_PVRFilteringGaussRadiusIndirect: 5
    m_PVRFilteringGaussRadiusAO: 2
    m_PVRFilteringAtrousPositionSigmaDirect: 0.5
    m_PVRFilteringAtrousPositionSigmaIndirect: 2
    m_PVRFilteringAtrousPositionSigmaAO: 1
    m_ExportTrainingData: 0
    m_TrainingDataDestination: TrainingData
    m_LightProbeSampleCountMultiplier: 4
  m_LightingDataAsset: {fileID: 0}
  m_LightingSettings: {fileID: 0}
--- !u!196 &4
NavMeshSettings:
  serializedVersion: 2
  m_ObjectHideFlags: 0
  m_BuildSettings:
    serializedVersion: 2
    agentTypeID: 0
    agentRadius: 0.5
    agentHeight: 2
    agentSlope: 45
    agentClimb: 0.4
    ledgeDropHeight: 0
    maxJumpAcrossDistance: 0
    minRegionArea: 2
    manualCellSize: 0
    cellSize: 0.16666667
    manualTileSize: 0
    tileSize: 256
    accuratePlacement: 0
    maxJobWorkers: 0
    preserveTilesOutsideBounds: 0
    debug:
      m_Flags: 0
  m_NavMeshData: {fileID: 0}
--- !u!1001 &226532042
PrefabInstance:
  m_ObjectHideFlags: 0
  serializedVersion: 2
  m_Modification:
    m_TransformParent: {fileID: 0}
    m_Modifications:
    - target: {fileID: 6004821199256931649, guid: fd311c59fb197420fb4be7e5e8d8897b, type: 3}
      propertyPath: m_RootOrder
      value: 3
      objectReference: {fileID: 0}
    - target: {fileID: 6004821199256931649, guid: fd311c59fb197420fb4be7e5e8d8897b, type: 3}
      propertyPath: m_LocalPosition.x
      value: -2.3223038
      objectReference: {fileID: 0}
    - target: {fileID: 6004821199256931649, guid: fd311c59fb197420fb4be7e5e8d8897b, type: 3}
      propertyPath: m_LocalPosition.y
      value: 1.1155045
      objectReference: {fileID: 0}
    - target: {fileID: 6004821199256931649, guid: fd311c59fb197420fb4be7e5e8d8897b, type: 3}
      propertyPath: m_LocalPosition.z
      value: -5.2552643
      objectReference: {fileID: 0}
    - target: {fileID: 6004821199256931649, guid: fd311c59fb197420fb4be7e5e8d8897b, type: 3}
      propertyPath: m_LocalRotation.w
      value: 1
      objectReference: {fileID: 0}
    - target: {fileID: 6004821199256931649, guid: fd311c59fb197420fb4be7e5e8d8897b, type: 3}
      propertyPath: m_LocalRotation.x
      value: 0
      objectReference: {fileID: 0}
    - target: {fileID: 6004821199256931649, guid: fd311c59fb197420fb4be7e5e8d8897b, type: 3}
      propertyPath: m_LocalRotation.y
      value: 0
      objectReference: {fileID: 0}
    - target: {fileID: 6004821199256931649, guid: fd311c59fb197420fb4be7e5e8d8897b, type: 3}
      propertyPath: m_LocalRotation.z
      value: 0
      objectReference: {fileID: 0}
    - target: {fileID: 6004821199256931649, guid: fd311c59fb197420fb4be7e5e8d8897b, type: 3}
      propertyPath: m_LocalEulerAnglesHint.x
      value: 0
      objectReference: {fileID: 0}
    - target: {fileID: 6004821199256931649, guid: fd311c59fb197420fb4be7e5e8d8897b, type: 3}
      propertyPath: m_LocalEulerAnglesHint.y
      value: 0
      objectReference: {fileID: 0}
    - target: {fileID: 6004821199256931649, guid: fd311c59fb197420fb4be7e5e8d8897b, type: 3}
      propertyPath: m_LocalEulerAnglesHint.z
      value: 0
      objectReference: {fileID: 0}
    - target: {fileID: 6004821199256931651, guid: fd311c59fb197420fb4be7e5e8d8897b, type: 3}
      propertyPath: m_Name
      value: FacebookManager
      objectReference: {fileID: 0}
    m_RemovedComponents: []
  m_SourcePrefab: {fileID: 100100000, guid: fd311c59fb197420fb4be7e5e8d8897b, type: 3}
--- !u!1001 &567396657
PrefabInstance:
  m_ObjectHideFlags: 0
  serializedVersion: 2
  m_Modification:
    m_TransformParent: {fileID: 0}
    m_Modifications:
    - target: {fileID: 6022942239990879876, guid: 1e1b14ab0cb284ecda0d048fa107c0fb, type: 3}
      propertyPath: m_RootOrder
      value: 2
      objectReference: {fileID: 0}
    - target: {fileID: 6022942239990879876, guid: 1e1b14ab0cb284ecda0d048fa107c0fb, type: 3}
      propertyPath: m_LocalPosition.x
      value: -2.3223038
      objectReference: {fileID: 0}
    - target: {fileID: 6022942239990879876, guid: 1e1b14ab0cb284ecda0d048fa107c0fb, type: 3}
      propertyPath: m_LocalPosition.y
      value: 1.1155045
      objectReference: {fileID: 0}
    - target: {fileID: 6022942239990879876, guid: 1e1b14ab0cb284ecda0d048fa107c0fb, type: 3}
      propertyPath: m_LocalPosition.z
      value: -5.2552643
      objectReference: {fileID: 0}
    - target: {fileID: 6022942239990879876, guid: 1e1b14ab0cb284ecda0d048fa107c0fb, type: 3}
      propertyPath: m_LocalRotation.w
      value: 1
      objectReference: {fileID: 0}
    - target: {fileID: 6022942239990879876, guid: 1e1b14ab0cb284ecda0d048fa107c0fb, type: 3}
      propertyPath: m_LocalRotation.x
      value: 0
      objectReference: {fileID: 0}
    - target: {fileID: 6022942239990879876, guid: 1e1b14ab0cb284ecda0d048fa107c0fb, type: 3}
      propertyPath: m_LocalRotation.y
      value: 0
      objectReference: {fileID: 0}
    - target: {fileID: 6022942239990879876, guid: 1e1b14ab0cb284ecda0d048fa107c0fb, type: 3}
      propertyPath: m_LocalRotation.z
      value: 0
      objectReference: {fileID: 0}
    - target: {fileID: 6022942239990879876, guid: 1e1b14ab0cb284ecda0d048fa107c0fb, type: 3}
      propertyPath: m_LocalEulerAnglesHint.x
      value: 0
      objectReference: {fileID: 0}
    - target: {fileID: 6022942239990879876, guid: 1e1b14ab0cb284ecda0d048fa107c0fb, type: 3}
      propertyPath: m_LocalEulerAnglesHint.y
      value: 0
      objectReference: {fileID: 0}
    - target: {fileID: 6022942239990879876, guid: 1e1b14ab0cb284ecda0d048fa107c0fb, type: 3}
      propertyPath: m_LocalEulerAnglesHint.z
      value: 0
      objectReference: {fileID: 0}
    - target: {fileID: 6022942239990879878, guid: 1e1b14ab0cb284ecda0d048fa107c0fb, type: 3}
      propertyPath: m_Name
      value: FacebookAnalyticsManager
      objectReference: {fileID: 0}
    m_RemovedComponents: []
  m_SourcePrefab: {fileID: 100100000, guid: 1e1b14ab0cb284ecda0d048fa107c0fb, type: 3}
--- !u!1001 &850503277
PrefabInstance:
  m_ObjectHideFlags: 0
  serializedVersion: 2
  m_Modification:
    m_TransformParent: {fileID: 0}
    m_Modifications:
    - target: {fileID: 3139104654479756757, guid: a0d92ca0bcadd4a628268da6e683a63b, type: 3}
      propertyPath: m_Name
      value: AdjustSDKManager
      objectReference: {fileID: 0}
    - target: {fileID: 3139104654479756758, guid: a0d92ca0bcadd4a628268da6e683a63b, type: 3}
      propertyPath: logLevel
      value: 7
      objectReference: {fileID: 0}
    - target: {fileID: 3139104654479756758, guid: a0d92ca0bcadd4a628268da6e683a63b, type: 3}
      propertyPath: environment
      value: 1
      objectReference: {fileID: 0}
    - target: {fileID: 3139104654479756758, guid: a0d92ca0bcadd4a628268da6e683a63b, type: 3}
      propertyPath: appTokenForAndroid
      value: ayn0qx2bvdog
      objectReference: {fileID: 0}
    - target: {fileID: 3139104654479756758, guid: a0d92ca0bcadd4a628268da6e683a63b, type: 3}
      propertyPath: showAdvanceAdjustConfiguretion
      value: 1
      objectReference: {fileID: 0}
    - target: {fileID: 3139104654479756758, guid: a0d92ca0bcadd4a628268da6e683a63b, type: 3}
      propertyPath: listOfAdjustEventTracker.Array.size
      value: 0
      objectReference: {fileID: 0}
    - target: {fileID: 3139104654479756758, guid: a0d92ca0bcadd4a628268da6e683a63b, type: 3}
      propertyPath: updateEnumListForPreConfigEventTracker
      value: 1
      objectReference: {fileID: 0}
    - target: {fileID: 3139104654479756758, guid: a0d92ca0bcadd4a628268da6e683a63b, type: 3}
      propertyPath: listOfAdjustEventTracker.Array.data[0].showOnEditor
      value: 1
      objectReference: {fileID: 0}
    - target: {fileID: 3139104654479756758, guid: a0d92ca0bcadd4a628268da6e683a63b, type: 3}
      propertyPath: listOfAdjustEventTracker.Array.data[0].eventTokenForIOS
      value: o99mnl
      objectReference: {fileID: 0}
    - target: {fileID: 3139104654479756758, guid: a0d92ca0bcadd4a628268da6e683a63b, type: 3}
      propertyPath: listOfAdjustEventTracker.Array.data[0].uniqueIdentifier
      value: test_event_delete
      objectReference: {fileID: 0}
    - target: {fileID: 3139104654479756758, guid: a0d92ca0bcadd4a628268da6e683a63b, type: 3}
      propertyPath: listOfAdjustEventTracker.Array.data[0].eventTokenForAndroid
      value: jd8jb6
      objectReference: {fileID: 0}
    - target: {fileID: 3139104654479756759, guid: a0d92ca0bcadd4a628268da6e683a63b, type: 3}
      propertyPath: m_RootOrder
      value: 1
      objectReference: {fileID: 0}
    - target: {fileID: 3139104654479756759, guid: a0d92ca0bcadd4a628268da6e683a63b, type: 3}
      propertyPath: m_LocalPosition.x
      value: 0
      objectReference: {fileID: 0}
    - target: {fileID: 3139104654479756759, guid: a0d92ca0bcadd4a628268da6e683a63b, type: 3}
      propertyPath: m_LocalPosition.y
      value: 0
      objectReference: {fileID: 0}
    - target: {fileID: 3139104654479756759, guid: a0d92ca0bcadd4a628268da6e683a63b, type: 3}
      propertyPath: m_LocalPosition.z
      value: 0
      objectReference: {fileID: 0}
    - target: {fileID: 3139104654479756759, guid: a0d92ca0bcadd4a628268da6e683a63b, type: 3}
      propertyPath: m_LocalRotation.w
      value: 1
      objectReference: {fileID: 0}
    - target: {fileID: 3139104654479756759, guid: a0d92ca0bcadd4a628268da6e683a63b, type: 3}
      propertyPath: m_LocalRotation.x
      value: 0
      objectReference: {fileID: 0}
    - target: {fileID: 3139104654479756759, guid: a0d92ca0bcadd4a628268da6e683a63b, type: 3}
      propertyPath: m_LocalRotation.y
      value: 0
      objectReference: {fileID: 0}
    - target: {fileID: 3139104654479756759, guid: a0d92ca0bcadd4a628268da6e683a63b, type: 3}
      propertyPath: m_LocalRotation.z
      value: 0
      objectReference: {fileID: 0}
    - target: {fileID: 3139104654479756759, guid: a0d92ca0bcadd4a628268da6e683a63b, type: 3}
      propertyPath: m_LocalEulerAnglesHint.x
      value: 0
      objectReference: {fileID: 0}
    - target: {fileID: 3139104654479756759, guid: a0d92ca0bcadd4a628268da6e683a63b, type: 3}
      propertyPath: m_LocalEulerAnglesHint.y
      value: 0
      objectReference: {fileID: 0}
    - target: {fileID: 3139104654479756759, guid: a0d92ca0bcadd4a628268da6e683a63b, type: 3}
      propertyPath: m_LocalEulerAnglesHint.z
      value: 0
      objectReference: {fileID: 0}
    m_RemovedComponents: []
  m_SourcePrefab: {fileID: 100100000, guid: a0d92ca0bcadd4a628268da6e683a63b, type: 3}
--- !u!1 &943107871
GameObject:
  m_ObjectHideFlags: 0
  m_CorrespondingSourceObject: {fileID: 0}
  m_PrefabInstance: {fileID: 0}
  m_PrefabAsset: {fileID: 0}
  serializedVersion: 6
  m_Component:
  - component: {fileID: 943107873}
  - component: {fileID: 943107872}
  m_Layer: 0
  m_Name: LevelManager
  m_TagString: Untagged
  m_Icon: {fileID: 0}
  m_NavMeshLayer: 0
  m_StaticEditorFlags: 0
  m_IsActive: 1
--- !u!114 &943107872
MonoBehaviour:
  m_ObjectHideFlags: 0
  m_CorrespondingSourceObject: {fileID: 0}
  m_PrefabInstance: {fileID: 0}
  m_PrefabAsset: {fileID: 0}
  m_GameObject: {fileID: 943107871}
  m_Enabled: 1
  m_EditorHideFlags: 0
  m_Script: {fileID: 11500000, guid: bf43c4291a288470fb2fde27b730f2f3, type: 3}
  m_Name: 
  m_EditorClassIdentifier: 
  gameCurrentLevel: 0
--- !u!4 &943107873
Transform:
  m_ObjectHideFlags: 0
  m_CorrespondingSourceObject: {fileID: 0}
  m_PrefabInstance: {fileID: 0}
  m_PrefabAsset: {fileID: 0}
  m_GameObject: {fileID: 943107871}
  m_LocalRotation: {x: -0, y: -0, z: -0, w: 1}
  m_LocalPosition: {x: 720, y: 1440, z: 0}
  m_LocalScale: {x: 1, y: 1, z: 1}
  m_Children: []
  m_Father: {fileID: 0}
  m_RootOrder: 6
  m_LocalEulerAnglesHint: {x: 0, y: 0, z: 0}
--- !u!1 &1134596610
GameObject:
  m_ObjectHideFlags: 0
  m_CorrespondingSourceObject: {fileID: 0}
  m_PrefabInstance: {fileID: 0}
  m_PrefabAsset: {fileID: 0}
  serializedVersion: 6
  m_Component:
  - component: {fileID: 1134596612}
  - component: {fileID: 1134596611}
  m_Layer: 0
  m_Name: LionAnalytics
  m_TagString: Untagged
  m_Icon: {fileID: 0}
  m_NavMeshLayer: 0
  m_StaticEditorFlags: 0
  m_IsActive: 1
--- !u!114 &1134596611
MonoBehaviour:
  m_ObjectHideFlags: 0
  m_CorrespondingSourceObject: {fileID: 0}
  m_PrefabInstance: {fileID: 0}
  m_PrefabAsset: {fileID: 0}
  m_GameObject: {fileID: 1134596610}
  m_Enabled: 1
  m_EditorHideFlags: 0
  m_Script: {fileID: 11500000, guid: 613dfc43df8684291b19ecc50538d4dc, type: 3}
  m_Name: 
  m_EditorClassIdentifier: 
--- !u!4 &1134596612
Transform:
  m_ObjectHideFlags: 0
  m_CorrespondingSourceObject: {fileID: 0}
  m_PrefabInstance: {fileID: 0}
  m_PrefabAsset: {fileID: 0}
  m_GameObject: {fileID: 1134596610}
  m_LocalRotation: {x: 0, y: 0, z: 0, w: 1}
  m_LocalPosition: {x: 1.7562603, y: 5.0296197, z: 3.744972}
  m_LocalScale: {x: 1, y: 1, z: 1}
  m_Children: []
  m_Father: {fileID: 0}
  m_RootOrder: 7
  m_LocalEulerAnglesHint: {x: 0, y: 0, z: 0}
--- !u!1 &1520377819
GameObject:
  m_ObjectHideFlags: 0
  m_CorrespondingSourceObject: {fileID: 0}
  m_PrefabInstance: {fileID: 0}
  m_PrefabAsset: {fileID: 0}
  serializedVersion: 6
  m_Component:
  - component: {fileID: 1520377822}
  - component: {fileID: 1520377821}
  - component: {fileID: 1520377820}
  - component: {fileID: 1520377823}
  m_Layer: 0
  m_Name: Main Camera
  m_TagString: MainCamera
  m_Icon: {fileID: 0}
  m_NavMeshLayer: 0
  m_StaticEditorFlags: 0
  m_IsActive: 1
--- !u!81 &1520377820
AudioListener:
  m_ObjectHideFlags: 0
  m_CorrespondingSourceObject: {fileID: 0}
  m_PrefabInstance: {fileID: 0}
  m_PrefabAsset: {fileID: 0}
  m_GameObject: {fileID: 1520377819}
  m_Enabled: 1
--- !u!20 &1520377821
Camera:
  m_ObjectHideFlags: 0
  m_CorrespondingSourceObject: {fileID: 0}
  m_PrefabInstance: {fileID: 0}
  m_PrefabAsset: {fileID: 0}
  m_GameObject: {fileID: 1520377819}
  m_Enabled: 1
  serializedVersion: 2
  m_ClearFlags: 2
  m_BackGroundColor: {r: 0, g: 0, b: 0, a: 0}
  m_projectionMatrixMode: 1
  m_GateFitMode: 2
  m_FOVAxisMode: 0
  m_SensorSize: {x: 36, y: 24}
  m_LensShift: {x: 0, y: 0}
  m_FocalLength: 50
  m_NormalizedViewPortRect:
    serializedVersion: 2
    x: 0
    y: 0
    width: 1
    height: 1
  near clip plane: 0.3
  far clip plane: 1000
  field of view: 60
  orthographic: 0
  orthographic size: 5
  m_Depth: -1
  m_CullingMask:
    serializedVersion: 2
    m_Bits: 4294967295
  m_RenderingPath: -1
  m_TargetTexture: {fileID: 0}
  m_TargetDisplay: 0
  m_TargetEye: 3
  m_HDR: 1
  m_AllowMSAA: 1
  m_AllowDynamicResolution: 0
  m_ForceIntoRT: 0
  m_OcclusionCulling: 1
  m_StereoConvergence: 10
  m_StereoSeparation: 0.022
--- !u!4 &1520377822
Transform:
  m_ObjectHideFlags: 0
  m_CorrespondingSourceObject: {fileID: 0}
  m_PrefabInstance: {fileID: 0}
  m_PrefabAsset: {fileID: 0}
  m_GameObject: {fileID: 1520377819}
  m_LocalRotation: {x: 0, y: 0, z: 0, w: 1}
  m_LocalPosition: {x: 0, y: 1, z: -10}
  m_LocalScale: {x: 1, y: 1, z: 1}
  m_Children: []
  m_Father: {fileID: 0}
  m_RootOrder: 4
  m_LocalEulerAnglesHint: {x: 0, y: 0, z: 0}
--- !u!114 &1520377823
MonoBehaviour:
  m_ObjectHideFlags: 0
  m_CorrespondingSourceObject: {fileID: 0}
  m_PrefabInstance: {fileID: 0}
  m_PrefabAsset: {fileID: 0}
  m_GameObject: {fileID: 1520377819}
  m_Enabled: 1
  m_EditorHideFlags: 0
  m_Script: {fileID: 11500000, guid: a79441f348de89743a2939f4d699eac1, type: 3}
  m_Name: 
  m_EditorClassIdentifier: 
  m_RenderShadows: 1
  m_RequiresDepthTextureOption: 2
  m_RequiresOpaqueTextureOption: 2
  m_CameraType: 0
  m_Cameras: []
  m_RendererIndex: -1
  m_VolumeLayerMask:
    serializedVersion: 2
    m_Bits: 1
  m_VolumeTrigger: {fileID: 0}
  m_RenderPostProcessing: 0
  m_Antialiasing: 0
  m_AntialiasingQuality: 2
  m_StopNaN: 0
  m_Dithering: 0
  m_ClearDepth: 1
  m_AllowXRRendering: 1
  m_RequiresDepthTexture: 0
  m_RequiresColorTexture: 0
  m_Version: 2
--- !u!1 &1801251829
GameObject:
  m_ObjectHideFlags: 0
  m_CorrespondingSourceObject: {fileID: 0}
  m_PrefabInstance: {fileID: 0}
  m_PrefabAsset: {fileID: 0}
  serializedVersion: 6
  m_Component:
  - component: {fileID: 1801251831}
  - component: {fileID: 1801251830}
  m_Layer: 0
  m_Name: LoadScene
  m_TagString: Untagged
  m_Icon: {fileID: 0}
  m_NavMeshLayer: 0
  m_StaticEditorFlags: 0
  m_IsActive: 1
--- !u!114 &1801251830
MonoBehaviour:
  m_ObjectHideFlags: 0
  m_CorrespondingSourceObject: {fileID: 0}
  m_PrefabInstance: {fileID: 0}
  m_PrefabAsset: {fileID: 0}
  m_GameObject: {fileID: 1801251829}
  m_Enabled: 1
  m_EditorHideFlags: 0
  m_Script: {fileID: 11500000, guid: fad9cee38c0094f82a1b6f03fc170e18, type: 3}
  m_Name: 
  m_EditorClassIdentifier: 
--- !u!4 &1801251831
Transform:
  m_ObjectHideFlags: 0
  m_CorrespondingSourceObject: {fileID: 0}
  m_PrefabInstance: {fileID: 0}
  m_PrefabAsset: {fileID: 0}
  m_GameObject: {fileID: 1801251829}
  m_LocalRotation: {x: 0, y: 0, z: 0, w: 1}
  m_LocalPosition: {x: 1.7562603, y: 5.0296197, z: 3.744972}
  m_LocalScale: {x: 1, y: 1, z: 1}
  m_Children: []
  m_Father: {fileID: 0}
  m_RootOrder: 5
  m_LocalEulerAnglesHint: {x: 0, y: 0, z: 0}
--- !u!1001 &2112573279
PrefabInstance:
  m_ObjectHideFlags: 0
  serializedVersion: 2
  m_Modification:
    m_TransformParent: {fileID: 0}
    m_Modifications:
    - target: {fileID: 372738822723593067, guid: dc89ad8ebe9e34edebf32abaf0d6ea7b, type: 3}
      propertyPath: m_Name
      value: GAnalyticsGM
      objectReference: {fileID: 0}
    - target: {fileID: 372738822723593069, guid: dc89ad8ebe9e34edebf32abaf0d6ea7b, type: 3}
      propertyPath: m_RootOrder
      value: 0
      objectReference: {fileID: 0}
    - target: {fileID: 372738822723593069, guid: dc89ad8ebe9e34edebf32abaf0d6ea7b, type: 3}
      propertyPath: m_LocalPosition.x
      value: -2.3223038
      objectReference: {fileID: 0}
    - target: {fileID: 372738822723593069, guid: dc89ad8ebe9e34edebf32abaf0d6ea7b, type: 3}
      propertyPath: m_LocalPosition.y
      value: 1.1155045
      objectReference: {fileID: 0}
    - target: {fileID: 372738822723593069, guid: dc89ad8ebe9e34edebf32abaf0d6ea7b, type: 3}
      propertyPath: m_LocalPosition.z
      value: -5.2552643
      objectReference: {fileID: 0}
    - target: {fileID: 372738822723593069, guid: dc89ad8ebe9e34edebf32abaf0d6ea7b, type: 3}
      propertyPath: m_LocalRotation.w
      value: 1
      objectReference: {fileID: 0}
    - target: {fileID: 372738822723593069, guid: dc89ad8ebe9e34edebf32abaf0d6ea7b, type: 3}
      propertyPath: m_LocalRotation.x
      value: 0
      objectReference: {fileID: 0}
    - target: {fileID: 372738822723593069, guid: dc89ad8ebe9e34edebf32abaf0d6ea7b, type: 3}
      propertyPath: m_LocalRotation.y
      value: 0
      objectReference: {fileID: 0}
    - target: {fileID: 372738822723593069, guid: dc89ad8ebe9e34edebf32abaf0d6ea7b, type: 3}
      propertyPath: m_LocalRotation.z
      value: 0
      objectReference: {fileID: 0}
    - target: {fileID: 372738822723593069, guid: dc89ad8ebe9e34edebf32abaf0d6ea7b, type: 3}
      propertyPath: m_LocalEulerAnglesHint.x
      value: 0
      objectReference: {fileID: 0}
    - target: {fileID: 372738822723593069, guid: dc89ad8ebe9e34edebf32abaf0d6ea7b, type: 3}
      propertyPath: m_LocalEulerAnglesHint.y
      value: 0
      objectReference: {fileID: 0}
    - target: {fileID: 372738822723593069, guid: dc89ad8ebe9e34edebf32abaf0d6ea7b, type: 3}
      propertyPath: m_LocalEulerAnglesHint.z
      value: 0
      objectReference: {fileID: 0}
    m_RemovedComponents: []
  m_SourcePrefab: {fileID: 100100000, guid: dc89ad8ebe9e34edebf32abaf0d6ea7b, type: 3}
