%YAML 1.1
%TAG !u! tag:unity3d.com,2011:
--- !u!114 &11400000
MonoBehaviour:
  m_ObjectHideFlags: 0
  m_CorrespondingSourceObject: {fileID: 0}
  m_PrefabInstance: {fileID: 0}
  m_PrefabAsset: {fileID: 0}
  m_GameObject: {fileID: 0}
  m_Enabled: 1
  m_EditorHideFlags: 0
  m_Script: {fileID: 11500000, guid: 252083d9cbc5b49c794ca65682f5e554, type: 3}
  m_Name: Objective3
  m_EditorClassIdentifier: 
  objectiveName: Dumble
  objectiveDespriction: Full Body Workout
  duration: 5
  earnedEnergy: 0
  earnedPlayerStrength: 100
  deductCoin: 50
  itemIcon: {fileID: 21300000, guid: 76446bda472e44fc89aa38c8ab6db37f, type: 3}
